module codeberg.org/pluja/web-whisper

go 1.19

require (
	github.com/go-chi/chi/v5 v5.0.7
	github.com/joho/godotenv v1.4.0
	github.com/rs/cors v1.8.2
	github.com/rs/xid v1.4.0
	github.com/u2takey/ffmpeg-go v0.4.1
)

require (
	github.com/aws/aws-sdk-go v1.38.20 // indirect
	github.com/jmespath/go-jmespath v0.4.0 // indirect
	github.com/stretchr/testify v1.7.0 // indirect
	github.com/u2takey/go-utils v0.3.1 // indirect
	golang.org/x/net v0.4.0 // indirect
	gopkg.in/yaml.v3 v3.0.0 // indirect
)
